{
  "variables": {
    "docker_version": "1.7.0",
    "image_name": "packer-redhatEnt7",
    "image_version": "1.0-${BUILD_NUMBER}",  
    "aws_access_key": "",
    "aws_secret_key": ""
    
  },

  "builders": [
    {
      "type": "amazon-ebs",
      "access_key": "{{user `aws_access_key`}}",
      "secret_key": "{{user `aws_secret_key`}}",
      "region": "ap-southeast-2",
      "source_ami": "ami-d3daace9",
      "instance_type": "t2.medium",
      "ssh_username": "ec2-user",
      "ssh_pty": true,     
      "ami_name": "{{user `image_name`}}-{{user `image_version`}}",
      "tags": { 
        "Release": "Redhat-Enterprise 7.1"
      }
    } 
  ],

  "provisioners": [
    {
      "type": "shell",
      "inline": [
        "# Source: http://docs.docker.io/en/latest/installation/ubuntulinux/#ubuntu-precise",
        "sudo yum -y update",
        "curl -O -sSL https://get.docker.com/rpm/1.7.0/centos-7/RPMS/x86_64/docker-engine-1.7.0-1.el7.centos.x86_64.rpm",
        "sudo yum -y install docker-engine-1.7.0-1.el7.centos.x86_64.rpm",
        "sudo yum -y install setuptool",
        "sudo yum -y install wget",
        "wget https://dl.fedoraproject.org/pub/epel/7/x86_64/e/epel-release-7-5.noarch.rpm",
        "sudo yum -y install epel-release-7-5.noarch.rpm",
        "sudo yum -y install python-pip",
        "sudo pip install boto"  
      ]
    }
  ]
}

